testes_V/BancoRegistrador/teste.vcd
$date
	Sun Nov  2 20:07:33 2025
$end
$version
	Icarus Verilog
$end
$timescale
	1s
$end
$scope module testbench $end
$var wire 8 ! rdData2 [7:0] $end
$var wire 8 " rdData1 [7:0] $end
$var reg 1 # clk $end
$var reg 2 $ dr [1:0] $end
$var reg 1 % reset $end
$var reg 2 & sr1 [1:0] $end
$var reg 2 ' sr2 [1:0] $end
$var reg 8 ( wrData [7:0] $end
$var reg 1 ) write $end
$var integer 32 * k [31:0] $end
$scope module BR $end
$var wire 1 # clk $end
$var wire 2 + dr [1:0] $end
$var wire 8 , rdData1 [7:0] $end
$var wire 8 - rdData2 [7:0] $end
$var wire 1 % reset $end
$var wire 2 . sr1 [1:0] $end
$var wire 2 / sr2 [1:0] $end
$var wire 8 0 wrData [7:0] $end
$var wire 1 ) write $end
$var integer 32 1 k [31:0] $end
$upscope $end
$upscope $end
$enddefinitions $end
#0
$dumpvars
bx 1
bx 0
bx /
bx .
bx -
bx ,
bx +
bx *
x)
bx (
bx '
bx &
x%
bx $
0#
bx "
bx !
$end
#1
0)
1%
#5
b100 1
1#
#6
0%
#10
0#
#13
1)
b0 (
b0 0
b0 $
b0 +
b0 *
#15
1#
#20
0#
#23
b1010 (
b1010 0
b1 $
b1 +
b1 *
1)
#25
1#
#30
0#
#33
b10100 (
b10100 0
b10 $
b10 +
b10 *
1)
#35
1#
#40
0#
#43
b11110 (
b11110 0
b11 $
b11 +
b11 *
1)
#45
1#
#50
0#
#53
b101000 (
b101000 0
b0 $
b0 +
b100 *
1)
#55
1#
#60
0#
#63
b110010 (
b110010 0
b1 $
b1 +
b101 *
1)
#65
1#
#70
0#
#73
b111100 (
b111100 0
b10 $
b10 +
b110 *
1)
#75
1#
#80
0#
#83
b1000110 (
b1000110 0
b11 $
b11 +
b111 *
1)
#85
1#
#90
0#
#93
b110010 !
b110010 -
b1 '
b1 /
b101000 "
b101000 ,
b0 &
b0 .
b0 *
0)
#95
1#
#98
b111100 !
b111100 -
b10 '
b10 /
b110010 "
b110010 ,
b1 &
b1 .
b1 *
#100
0#
#103
b1000110 !
b1000110 -
b11 '
b11 /
b111100 "
b111100 ,
b10 &
b10 .
b10 *
#105
1#
#108
b101000 !
b101000 -
b0 '
b0 /
b1000110 "
b1000110 ,
b11 &
b11 .
b11 *
#110
0#
#113
b110010 !
b110010 -
b1 '
b1 /
b101000 "
b101000 ,
b0 &
b0 .
b100 *
#115
1#
#118
b111100 !
b111100 -
b10 '
b10 /
b110010 "
b110010 ,
b1 &
b1 .
b101 *
#120
0#
#123
b1000110 !
b1000110 -
b11 '
b11 /
b111100 "
b111100 ,
b10 &
b10 .
b110 *
#125
1#
#128
b111 *
